ISSS 608 Visual Analytics and Applications - Armed Conflicts in Myanmar - Prototype
…
2. Loading the Datasets

The main dataset that will be used is ACLED_MMR. This dataset is obtained from the ACLED website which allows the selection of just extracting the particular country for our study - Myanmar.

ACLED_MMR <- read_csv("data/MMR.csv")

3. Data Overview

The dataset contains a total of 35 variables and 57,198 rows.

ACLED_MMR

# A tibble: 57,198 × 35
   event_id_cnty event_date        year time_precision disorder_type  event_type
   <chr>         <chr>            <dbl>          <dbl> <chr>          <chr>     
 1 MMR58558      16 February 2024  2024              1 Political vio… Battles   
 2 MMR58559      16 February 2024  2024              1 Political vio… Battles   
 3 MMR58443      16 February 2024  2024              2 Political vio… Violence …
 4 MMR58502      16 February 2024  2024              1 Political vio… Violence …
 5 MMR58507      16 February 2024  2024              1 Political vio… Explosion…
 6 MMR58508      16 February 2024  2024              1 Political vio… Explosion…
 7 MMR58547      16 February 2024  2024              1 Strategic dev… Strategic…
 8 MMR58560      16 February 2024  2024              1 Political vio… Battles   
 9 MMR58589      16 February 2024  2024              2 Political vio… Violence …
10 MMR58648      16 February 2024  2024              1 Political vio… Explosion…
# ℹ 57,188 more rows
# ℹ 29 more variables: sub_event_type <chr>, actor1 <chr>, assoc_actor_1 <chr>,
#   inter1 <dbl>, actor2 <chr>, assoc_actor_2 <chr>, inter2 <dbl>,
#   interaction <dbl>, civilian_targeting <chr>, iso <dbl>, region <chr>,
#   country <chr>, admin1 <chr>, admin2 <chr>, admin3 <chr>, location <chr>,
#   latitude <dbl>, longitude <dbl>, geo_precision <dbl>, source <chr>,
#   source_scale <chr>, notes <chr>, fatalities <dbl>, tags <chr>, …
…
