ISSS 608 Visual Analytics and Applications - Take Home Exercise 3
…
Highest 120 Min Rainfall (mm)

Mean Temperature (°C)

Maximum Temperature (°C)

Minimum Temperature (°C)

Mean Wind Speed (km/h)

Max Wind Speed (km/h)

Reading the File

# A tibble: 31 × 13
   Station    Year Month   Day Daily Rainfall Total (mm…¹ Highest 30 Min Rainf…²
   <chr>     <dbl> <dbl> <dbl>                      <dbl>                  <dbl>
 1 Serangoon  1983    12     1                        6                        0
 2 Serangoon  1983    12     2                        1                        0
 3 Serangoon  1983    12     3                        3.6                      0
 4 Serangoon  1983    12     4                        0                        0
 5 Serangoon  1983    12     5                        0                        0
 6 Serangoon  1983    12     6                        0                        0
 7 Serangoon  1983    12     7                        0.3                      0
 8 Serangoon  1983    12     8                        4.1                      0
 9 Serangoon  1983    12     9                       56.1                      0
10 Serangoon  1983    12    10                       18.8                      0
# ℹ 21 more rows
# ℹ abbreviated names: ¹​`Daily Rainfall Total (mm)`,
#   ²​`Highest 30 Min Rainfall (mm)`
# ℹ 7 more variables: `Highest 60 Min Rainfall (mm)` <dbl>,
#   `Highest 120 Min Rainfall (mm)` <dbl>, `Mean Temperature (C)` <dbl>,
#   `Maximum Temperature (C)` <dbl>, `Minimum Temperature (C)` <dbl>,
#   `Mean Wind Speed (km/h)` <dbl>, `Max Wind Speed (km/h)` <dbl>

# A tibble: 31 × 13
   Station    Year Month   Day Daily Rainfall Total (mm…¹ Highest 30 Min Rainf…²
   <chr>     <dbl> <dbl> <dbl>                      <dbl>                  <dbl>
 1 Serangoon  1993    12     1                       50.5                      0
 2 Serangoon  1993    12     2                        4.2                      0
 3 Serangoon  1993    12     3                       28                        0
 4 Serangoon  1993    12     4                        1.2                      0
 5 Serangoon  1993    12     5                       33.8                      0
 6 Serangoon  1993    12     6                        8.5                      0
 7 Serangoon  1993    12     7                        0                        0
 8 Serangoon  1993    12     8                       20.9                      0
 9 Serangoon  1993    12     9                        0                        0
10 Serangoon  1993    12    10                       12.5                      0
# ℹ 21 more rows
# ℹ abbreviated names: ¹​`Daily Rainfall Total (mm)`,
#   ²​`Highest 30 Min Rainfall (mm)`
# ℹ 7 more variables: `Highest 60 Min Rainfall (mm)` <dbl>,
#   `Highest 120 Min Rainfall (mm)` <dbl>, `Mean Temperature (C)` <dbl>,
#   `Maximum Temperature (C)` <dbl>, `Minimum Temperature (C)` <dbl>,
#   `Mean Wind Speed (km/h)` <dbl>, `Max Wind Speed (km/h)` <dbl>

# A tibble: 31 × 13
   Station    Year Month   Day Daily Rainfall Total (mm…¹ Highest 30 Min Rainf…²
   <chr>     <dbl> <dbl> <dbl>                      <dbl>                  <dbl>
 1 Serangoon  2003    12     1                        0.6                      0
 2 Serangoon  2003    12     2                        6                        0
 3 Serangoon  2003    12     3                        0                        0
 4 Serangoon  2003    12     4                        0                        0
 5 Serangoon  2003    12     5                        5.5                      0
 6 Serangoon  2003    12     6                        0.4                      0
 7 Serangoon  2003    12     7                        0.2                      0
 8 Serangoon  2003    12     8                        0.2                      0
 9 Serangoon  2003    12     9                       24.3                      0
10 Serangoon  2003    12    10                       12.7                      0
# ℹ 21 more rows
# ℹ abbreviated names: ¹​`Daily Rainfall Total (mm)`,
#   ²​`Highest 30 Min Rainfall (mm)`
# ℹ 7 more variables: `Highest 60 Min Rainfall (mm)` <dbl>,
#   `Highest 120 Min Rainfall (mm)` <dbl>, `Mean Temperature (C)` <dbl>,
#   `Maximum Temperature (C)` <dbl>, `Minimum Temperature (C)` <dbl>,
#   `Mean Wind Speed (km/h)` <dbl>, `Max Wind Speed (km/h)` <dbl>

# A tibble: 31 × 13
   Station    Year Month   Day Daily Rainfall Total (mm…¹ Highest 30 Min Rainf…²
   <chr>     <dbl> <dbl> <dbl>                      <dbl>                  <dbl>
 1 Serangoon  2013    12     1                       20                        0
 2 Serangoon  2013    12     2                        8.6                      0
 3 Serangoon  2013    12     3                       92.9                      0
 4 Serangoon  2013    12     4                        0.2                      0
 5 Serangoon  2013    12     5                       23                        0
 6 Serangoon  2013    12     6                       59.2                      0
 7 Serangoon  2013    12     7                        0                        0
 8 Serangoon  2013    12     8                       25.2                      0
 9 Serangoon  2013    12     9                        0                        0
10 Serangoon  2013    12    10                        0                        0
# ℹ 21 more rows
# ℹ abbreviated names: ¹​`Daily Rainfall Total (mm)`,
#   ²​`Highest 30 Min Rainfall (mm)`
# ℹ 7 more variables: `Highest 60 Min Rainfall (mm)` <dbl>,
#   `Highest 120 Min Rainfall (mm)` <dbl>, `Mean Temperature (C)` <dbl>,
#   `Maximum Temperature (C)` <dbl>, `Minimum Temperature (C)` <dbl>,
#   `Mean Wind Speed (km/h)` <dbl>, `Max Wind Speed (km/h)` <dbl>

# A tibble: 31 × 13
   Station    Year Month   Day Daily Rainfall Total (mm…¹ Highest 30 min Rainf…²
   <chr>     <dbl> <dbl> <dbl>                      <dbl>                  <dbl>
 1 Serangoon  2023    12     1                       16.4                      3
 2 Serangoon  2023    12     2                        0                        0
 3 Serangoon  2023    12     3                        0                        0
 4 Serangoon  2023    12     4                        0                        0
 5 Serangoon  2023    12     5                        0                        0
 6 Serangoon  2023    12     6                        0                        0
 7 Serangoon  2023    12     7                        0                        0
 8 Serangoon  2023    12     8                        0                        0
 9 Serangoon  2023    12     9                        0                        0
10 Serangoon  2023    12    10                        0                        0
# ℹ 21 more rows
# ℹ abbreviated names: ¹​`Daily Rainfall Total (mm)`,
#   ²​`Highest 30 min Rainfall (mm)`
# ℹ 7 more variables: `Highest 60 min Rainfall (mm)` <dbl>,
#   `Highest 120 min Rainfall (mm)` <dbl>, `Mean Temperature (C)` <dbl>,
#   `Maximum Temperature (C)` <dbl>, `Minimum Temperature (C)` <dbl>,
#   `Mean Wind Speed (km/h)` <dbl>, `Max Wind Speed (km/h)` <dbl>

Combining the Files

# A tibble: 165 × 606
   Station    Year Month   Day Daily Rainfall Total (mm…¹ Highest 30 Min Rainf…²
   <chr>     <dbl> <dbl> <dbl>                      <dbl>                  <dbl>
 1 Serangoon  1983    12     1                        6                        0
 2 Serangoon  1983    12     2                        1                        0
 3 Serangoon  1983    12     3                        3.6                      0
 4 Serangoon  1983    12     4                        0                        0
 5 Serangoon  1983    12     5                        0                        0
 6 Serangoon  1983    12     6                        0                        0
 7 Serangoon  1983    12     7                        0.3                      0
 8 Serangoon  1983    12     8                        4.1                      0
 9 Serangoon  1983    12     9                       56.1                      0
10 Serangoon  1983    12    10                       18.8                      0
# ℹ 155 more rows
# ℹ abbreviated names: ¹​`Daily Rainfall Total (mm)`,
#   ²​`Highest 30 Min Rainfall (mm)`
# ℹ 600 more variables: `Highest 60 Min Rainfall (mm)` <dbl>,
#   `Highest 120 Min Rainfall (mm)` <dbl>, `Mean Temperature (C)` <dbl>,
#   `Maximum Temperature (C)` <dbl>, `Minimum Temperature (C)` <dbl>,
#   `Mean Wind Speed (km/h)` <dbl>, `Max Wind Speed (km/h)` <dbl>, …
…
